Key,Value data type,Value required(R) or optional(O),Meaning,Purpose/Examples
id,string,R,"The id of the device profile REST entity, needs to be unique",The DP is a rest entity like some of the other AOS elements like logical device and IM etc. Each need a unique identifier which is also used as an index into the database when looking up DPs.
failure_domain_id,int,R,"When a device has multiple failure domains, this represents the one that is currently active.",
hardware_capabilities,dict,R,Captures those specifications of the device which are purely hardware,"AOS needs a way to capture some of the HW capabilities which identify the device or highlight some of its unique strengths like ram, cpu, ecmp limit etc"
userland,int,R,"The type of application binary/kernel that the device supports.
Usually this value is 32 or 64.",
copp_strict,list,O,"when set to '
'True, generate strict copp '
'profile config for NXOS","This field is used in the nxos jinja files to generate the config.

Usually for most models, this value is True, except for models like Cisco 3172 and Cisco nxosv"
breakout_capable,list,O,"When set to true for a module, indicates that ports of that module are breakout capable",
ram,int,R,How much memory does the device have,The unit is GB.
asic,string,R,Type of chipset on the device,"Example: “T2”, “T3”, “Arad (3)
”, “Alta”"
as_seq_num_supported,list,O,,
form_factor,string,R,How much rack space/units does the device need,"Examples: ‘1RU’, ‘2RU’, ‘7RU’, ‘13RU’"
ecmp_limit,int,R,Maximum number of next hops for ECMP routes,This field changes the BGP configuration on the device (ecmp max-paths)
cpu,string,R,"What is the cpu architecture of the device.
Note: AOS can only support ""x86"" if users intend to use onbox device agents because of TACC limitations. If the users intend to use offbox agents, then there is no such restriction.",Example: ‘x86’
label,string,R,A human readable name for the DP,
software_capabilities,dict,R,A device might have some unique software capabilities.AOS requires these fields to have been set correctly for proper config rendering and deployment.,
onie,bool,R,Does the device OS support onie,
lxc_support,bool,R,Does the device support LXC containers,
slot_count,int,R,How many slots does the device have,"If the device is a modular device, it will have a non-zero slot_count."
selector,dict,R,The selector information is used by the AOS to match the DP to the actual device. Each of the four fields in the selector need to exactly match the ones as derived from the device.,"As part of device bring up, the device agent does an exact match on each of these fields to successfully assign the DP to the device. Unless this happens, the device cannot be made part of AOS"
os_version,string,R,Regex for the OS version on the device. AOS will use this regex from the DP to match and assign a system device to a DP,
model,string,R,Regex for the Model information as seen on syseeprom that AOS will use to match and assign a system device to a DP,
os,string,R,Regex for OS name that AOS will use to match and assign a system device to a DP,
manufacturer,string,R,Regex of vendor/manufacturer that AOS will use to match and assign a system device to a DP,
ports,list,R,Number of ports that the device specifies.,Port is a physical entity on the device as seen from the switch’s front panel
panel_id,int,R,"Being a per port field, This field is used by UI to display the rows and columns. For devices where the ports are divided between multiple panels, user will need to rightly map ports to the correct panel",panel_id is informational only at this point. The AOS UI uses this information to geometrically place the ports as close to how they appear on the device’s physical front panel.The panel_id is not used in the config rendering engine inside AOS and is purely for cosmetic mapping between the physical appearance of the ports on the device to that on AOS UI port display.
slot_id,int,R,"Being a per port field, this represents the module/slot this port belongs to. For modular devices, there will be multiple slots.",
connector_type,string,R,"Being a per port field, this records the connector type for the physical port",
row_id,int,R,This is used to represent the port layout. User can see the specification and figure out how many rows the layout has and the row ID for this port.,
column_id,int,R,This is used to represent the port layout. User can see the specification and figure out how many columns the layout has and the column ID for this port.,
transformations,list,R,"Transformations capture the breakout capabilities of the port. If a port is 40G->4x10G, there will be 2 transformations.
There is at least one transformation per port, because every port is capable of at least one speed.",
is_default,bool,R,"Being a per transformation field, this represents if the speed this transformation represents is the default speed of the port. This information can be read from the spec. For example for a qsfp28 port, the default speed is 100G, so the transformation with 100G interfaces sets the is_default to True",
interfaces,list,R,"This is a per transformation field. For the 4x10G transformation, there will be 4 active interfaces, each capable of 10G. Similarly for the 40G transformation, there will be one active interface with speed 40G.",Interfaces are the effective port state when put in a breakout mode.
state,string,R,"Per interface field. Represents if it is active or inactive interface.
This field is useful when building IMs using this DP, especially for models with inter-port constraints","On certain vendors like EOS, the OS expects inactive and active interfaces in the config. For example, in a 40G->4x10G, transformation #1 will have 1 active 40G interface and 3 inactive interfaces. Transformation #2 will have 4 active 10G interfaces.
Example values: “active” , “inactive”"
setting,string,Optional,Per interface field. This captures the vendor specific command to apply an interface speed andand to bring the port into selected breakout mode.,
speed,dict,Optional,Per interface field. This represents the speed this interface is to run once configured on the device.,
unit,string,R,"Per speed field, represents the speed unit",
value,int,R,"Per speed field, represents the speed value",
name,string,R,"Per interface field, this is the name of the interface as the vendor/operating system requires the name when the interface is configuredin the selected breakout transformationon the device. This is a semantic heavy field.",
interface_id,int,R,A unique identifier which is used to ID the interface in the database.,
transformation_id,int,R,A unique identifier which is used to ID the transformation in the database.,
port_id,int,R,A unique identifier which is used to ID the port in the database.,